/home/ubuntu/salarybranch/OT-Microservices/salaryv2/src/main/java/com/opstree/salary/Application.java
/home/ubuntu/salarybranch/OT-Microservices/salaryv2/src/main/java/com/opstree/salary/util/Constant.java
/home/ubuntu/salarybranch/OT-Microservices/salaryv2/src/main/java/com/opstree/salary/controller/SalaryController.java
/home/ubuntu/salarybranch/OT-Microservices/salaryv2/src/main/java/com/opstree/salary/service/SalaryService.java
/home/ubuntu/salarybranch/OT-Microservices/salaryv2/src/main/java/com/opstree/salary/config/ElasticsearchConfig.java
/home/ubuntu/salarybranch/OT-Microservices/salaryv2/src/main/java/com/opstree/salary/model/SalaryModel.java
